Lab2/Src/sumador.vcd
$date
	Sun Mar 17 18:46:15 2024
$end
$version
	Icarus Verilog
$end
$timescale
	1ps
$end
$scope module sumador_tb $end
$var wire 1 ! S3 $end
$var wire 1 " S2 $end
$var wire 1 # S1 $end
$var wire 1 $ S0 $end
$var wire 1 % Cout3 $end
$var wire 1 & Cout2 $end
$var wire 1 ' Cout1 $end
$var wire 1 ( Cout0 $end
$var reg 1 ) A0 $end
$var reg 1 * A1 $end
$var reg 1 + A2 $end
$var reg 1 , A3 $end
$var reg 1 - B0 $end
$var reg 1 . B1 $end
$var reg 1 / B2 $end
$var reg 1 0 B3 $end
$scope module uut $end
$var wire 1 ) A0 $end
$var wire 1 * A1 $end
$var wire 1 + A2 $end
$var wire 1 , A3 $end
$var wire 1 - B0 $end
$var wire 1 . B1 $end
$var wire 1 / B2 $end
$var wire 1 0 B3 $end
$var wire 1 1 Cin0 $end
$var wire 1 ( Cout0 $end
$var wire 1 ' Cout1 $end
$var wire 1 & Cout2 $end
$var wire 1 % Cout3 $end
$var wire 1 $ S0 $end
$var wire 1 # S1 $end
$var wire 1 " S2 $end
$var wire 1 ! S3 $end
$var wire 1 2 and1_0 $end
$var wire 1 3 and1_1 $end
$var wire 1 4 and1_2 $end
$var wire 1 5 and1_3 $end
$var wire 1 6 and2_0 $end
$var wire 1 7 and2_1 $end
$var wire 1 8 and2_2 $end
$var wire 1 9 and2_3 $end
$var wire 1 : xor1_0 $end
$var wire 1 ; xor1_1 $end
$var wire 1 < xor1_2 $end
$var wire 1 = xor1_3 $end
$upscope $end
$upscope $end
$enddefinitions $end
$comment Show the parameter values. $end
$dumpall
$end
#0
$dumpvars
0=
0<
0;
0:
09
08
07
06
05
04
03
02
01
00
0/
0.
0-
0,
0+
0*
0)
0(
0'
0&
0%
0$
0#
0"
0!
$end
#20000
1!
1=
10
#40000
0!
1"
0=
1<
00
1/
#60000
1!
1=
10
#80000
0!
0"
1#
0=
0<
1;
00
0/
1.
#100000
1!
1=
10
#120000
0!
1"
0=
1<
00
1/
#140000
1!
1=
10
#160000
0!
0"
0#
1$
0=
0<
0;
1:
00
0/
0.
1-
#180000
1!
1=
10
#200000
0!
1"
0=
1<
00
1/
#220000
1!
1=
10
#240000
0!
0"
1#
0=
0<
1;
00
0/
1.
#260000
1!
1=
10
#280000
0!
1"
0=
1<
00
1/
#300000
1!
1=
10
#320000
0"
0#
0$
0<
0;
0:
00
0/
0.
0-
1,
#340000
0!
0=
1%
15
10
#360000
1!
1"
1=
0%
1<
05
00
1/
#380000
0!
0=
1%
15
10
#400000
1!
0"
1#
1=
0%
0<
1;
05
00
0/
1.
#420000
0!
0=
1%
15
10
#440000
1!
1"
1=
0%
1<
05
00
1/
#460000
0!
0=
1%
15
10
#480000
1!
0"
0#
1$
1=
0%
0<
0;
1:
05
00
0/
0.
1-
#500000
0!
0=
1%
15
10
#520000
1!
1"
1=
0%
1<
05
00
1/
#540000
0!
0=
1%
15
10
#560000
1!
0"
1#
1=
0%
0<
1;
05
00
0/
1.
#580000
0!
0=
1%
15
10
#600000
1!
1"
1=
0%
1<
05
00
1/
#620000
0!
0=
1%
15
10
#640000
0#
0$
0;
0:
0%
05
00
0/
0.
0-
0,
1+
#660000
1!
1=
10
#680000
0"
0<
0=
1&
14
00
1/
#700000
0!
1%
19
1=
10
#720000
1"
0%
1#
1<
09
0=
0&
1;
04
00
0/
1.
#740000
1!
1=
10
#760000
0"
0<
0=
1&
14
00
1/
#780000
0!
1%
19
1=
10
#800000
1"
0%
0#
1$
1<
09
0=
0&
0;
1:
04
00
0/
0.
1-
#820000
1!
1=
10
#840000
0"
0<
0=
1&
14
00
1/
#860000
0!
1%
19
1=
10
#880000
1"
0%
1#
1<
09
0=
0&
1;
04
00
0/
1.
#900000
1!
1=
10
#920000
0"
0<
0=
1&
14
00
1/
#940000
0!
1%
19
1=
10
#960000
1"
1!
0%
0#
0$
1<
09
0&
0;
0:
04
00
0/
0.
0-
1,
#980000
0!
0=
1%
15
10
#1000000
0"
19
0!
1=
0<
1%
1&
05
14
00
1/
#1020000
1!
09
0=
15
10
#1040000
1"
1!
1#
1=
1<
0%
0&
1;
05
04
00
0/
1.
#1060000
0!
0=
1%
15
10
#1080000
0"
19
0!
1=
0<
1%
1&
05
14
00
1/
#1100000
1!
09
0=
15
10
#1120000
1"
1!
0#
1$
1=
1<
0%
0&
0;
1:
05
04
00
0/
0.
1-
#1140000
0!
0=
1%
15
10
#1160000
0"
19
0!
1=
0<
1%
1&
05
14
00
1/
#1180000
1!
09
0=
15
10
#1200000
1"
1!
1#
1=
1<
0%
0&
1;
05
04
00
0/
1.
#1220000
0!
0=
1%
15
10
#1240000
0"
19
0!
1=
0<
1%
1&
05
14
00
1/
#1260000
1!
09
0=
15
10
#1280000
0$
0!
0:
0%
0&
05
04
00
0/
0.
0-
0,
0+
1*
#1300000
1!
1=
10
#1320000
0!
1"
0=
1<
00
1/
#1340000
1!
1=
10
#1360000
0#
0!
0;
0=
0<
1'
13
00
0/
1.
#1380000
1!
1=
10
#1400000
0"
1!
1&
18
0=
1<
00
1/
#1420000
0!
1%
19
1=
10
#1440000
1#
0%
0&
1$
09
1;
08
0=
0<
0'
1:
03
00
0/
0.
1-
#1460000
1!
1=
10
#1480000
0!
1"
0=
1<
00
1/
#1500000
1!
1=
10
#1520000
0#
0!
0;
0=
0<
1'
13
00
0/
1.
#1540000
1!
1=
10
#1560000
0"
1!
1&
18
0=
1<
00
1/
#1580000
0!
1%
19
1=
10
#1600000
1!
0%
1#
09
0&
0$
1;
08
0<
0'
0:
03
00
0/
0.
0-
1,
#1620000
0!
0=
1%
15
10
#1640000
1!
1"
1=
0%
1<
05
00
1/
#1660000
0!
0=
1%
15
10
#1680000
1!
0#
1=
0;
0%
0<
1'
05
13
00
0/
1.
#1700000
0!
0=
1%
15
10
#1720000
0"
19
1&
1=
18
1%
1<
05
00
1/
#1740000
1!
09
0=
15
10
#1760000
1#
0&
1$
1=
1;
08
0%
0<
0'
1:
05
03
00
0/
0.
1-
#1780000
0!
0=
1%
15
10
#1800000
1!
1"
1=
0%
1<
05
00
1/
#1820000
0!
0=
1%
15
10
#1840000
1!
0#
1=
0;
0%
0<
1'
05
13
00
0/
1.
#1860000
0!
0=
1%
15
10
#1880000
0"
19
1&
1=
18
1%
1<
05
00
1/
#1900000
1!
09
0=
15
10
#1920000
0!
1#
1"
0&
0$
1;
08
0'
0:
0%
03
05
00
0/
0.
0-
0,
1+
#1940000
1!
1=
10
#1960000
0"
0<
0=
1&
14
00
1/
#1980000
0!
1%
19
1=
10
#2000000
1!
0#
18
0%
0"
1<
09
0;
0=
1&
1'
04
13
00
0/
1.
#2020000
0!
1%
19
1=
10
#2040000
1"
1!
0%
08
09
0<
0=
14
00
1/
#2060000
0!
1%
19
1=
10
#2080000
1#
0%
1"
1$
1<
09
1;
0=
0&
0'
1:
04
03
00
0/
0.
1-
#2100000
1!
1=
10
#2120000
0"
0<
0=
1&
14
00
1/
#2140000
0!
1%
19
1=
10
#2160000
1!
0#
18
0%
0"
1<
09
0;
0=
1&
1'
04
13
00
0/
1.
#2180000
0!
1%
19
1=
10
#2200000
1"
1!
0%
08
09
0<
0=
14
00
1/
#2220000
0!
1%
19
1=
10
#2240000
1!
1#
0%
1"
0$
1<
09
1;
0&
0'
0:
04
03
00
0/
0.
0-
1,
#2260000
0!
0=
1%
15
10
#2280000
0"
19
0!
1=
0<
1%
1&
05
14
00
1/
#2300000
1!
09
0=
15
10
#2320000
19
0#
18
0!
0"
1=
1<
0;
1%
1&
1'
05
04
13
00
0/
1.
#2340000
1!
09
0=
15
10
#2360000
0!
1"
19
08
1=
0<
1%
05
14
00
1/
#2380000
1!
09
0=
15
10
#2400000
1#
1!
1"
1$
1=
1<
1;
0%
0&
0'
1:
05
04
03
00
0/
0.
1-
#2420000
0!
0=
1%
15
10
#2440000
0"
19
0!
1=
0<
1%
1&
05
14
00
1/
#2460000
1!
09
0=
15
10
#2480000
19
0#
18
0!
0"
1=
1<
0;
1%
1&
1'
05
04
13
00
0/
1.
#2500000
1!
09
0=
15
10
#2520000
0!
1"
19
08
1=
0<
1%
05
14
00
1/
#2540000
1!
09
0=
15
10
#2560000
0!
0"
0%
0&
0'
05
04
03
00
0/
0.
0-
0,
0+
0*
1)
#2580000
1!
1=
10
#2600000
0!
1"
0=
1<
00
1/
#2620000
1!
1=
10
#2640000
0!
0"
1#
0=
0<
1;
00
0/
1.
#2660000
1!
1=
10
#2680000
0!
1"
0=
1<
00
1/
#2700000
1!
1=
10
#2720000
0$
0!
0"
0:
0=
0<
0;
1(
12
00
0/
0.
1-
#2740000
1!
1=
10
#2760000
0!
1"
0=
1<
00
1/
#2780000
1!
1=
10
#2800000
0#
0!
1"
1'
17
0=
0<
1;
00
0/
1.
#2820000
1!
1=
10
#2840000
0"
1!
1&
18
0=
1<
00
1/
#2860000
0!
1%
19
1=
10
#2880000
1!
0%
09
1$
0&
0'
08
1:
07
0<
0;
0(
02
00
0/
0.
0-
1,
#2900000
0!
0=
1%
15
10
#2920000
1!
1"
1=
0%
1<
05
00
1/
#2940000
0!
0=
1%
15
10
#2960000
1!
0"
1#
1=
0%
0<
1;
05
00
0/
1.
#2980000
0!
0=
1%
15
10
#3000000
1!
1"
1=
0%
1<
05
00
1/
#3020000
0!
0=
1%
15
10
#3040000
1!
0$
0"
1=
0:
0%
0<
0;
1(
05
12
00
0/
0.
1-
#3060000
0!
0=
1%
15
10
#3080000
1!
1"
1=
0%
1<
05
00
1/
#3100000
0!
0=
1%
15
10
#3120000
1!
0#
1"
1'
1=
17
0%
0<
1;
05
00
0/
1.
#3140000
0!
0=
1%
15
10
#3160000
0"
19
1&
1=
18
1%
1<
05
00
1/
#3180000
1!
09
0=
15
10
#3200000
0!
1"
0&
1$
08
0'
1:
07
0;
0(
0%
02
05
00
0/
0.
0-
0,
1+
#3220000
1!
1=
10
#3240000
0"
0<
0=
1&
14
00
1/
#3260000
0!
1%
19
1=
10
#3280000
1"
0%
1#
1<
09
0=
0&
1;
04
00
0/
1.
#3300000
1!
1=
10
#3320000
0"
0<
0=
1&
14
00
1/
#3340000
0!
1%
19
1=
10
#3360000
1"
0$
0%
1<
09
0:
0=
0&
0;
1(
04
12
00
0/
0.
1-
#3380000
1!
1=
10
#3400000
0"
0<
0=
1&
14
00
1/
#3420000
0!
1%
19
1=
10
#3440000
1!
0#
18
0%
1'
1<
09
17
0=
1&
1;
04
00
0/
1.
#3460000
0!
1%
19
1=
10
#3480000
1"
1!
0%
08
09
0<
0=
14
00
1/
#3500000
0!
1%
19
1=
10
#3520000
1!
1$
0%
0'
1<
09
1:
07
0&
0;
0(
04
02
00
0/
0.
0-
1,
#3540000
0!
0=
1%
15
10
#3560000
0"
19
0!
1=
0<
1%
1&
05
14
00
1/
#3580000
1!
09
0=
15
10
#3600000
1"
1!
1#
1=
1<
0%
0&
1;
05
04
00
0/
1.
#3620000
0!
0=
1%
15
10
#3640000
0"
19
0!
1=
0<
1%
1&
05
14
00
1/
#3660000
1!
09
0=
15
10
#3680000
1"
0$
1!
1=
1<
0:
0%
0&
0;
1(
05
04
12
00
0/
0.
1-
#3700000
0!
0=
1%
15
10
#3720000
0"
19
0!
1=
0<
1%
1&
05
14
00
1/
#3740000
1!
09
0=
15
10
#3760000
19
0#
18
0!
1'
1=
1<
17
1%
1&
1;
05
04
00
0/
1.
#3780000
1!
09
0=
15
10
#3800000
0!
1"
19
08
1=
0<
1%
05
14
00
1/
#3820000
1!
09
0=
15
10
#3840000
0"
1$
1#
0'
0!
1:
07
0(
0%
0&
02
05
04
00
0/
0.
0-
0,
0+
1*
#3860000
1!
1=
10
#3880000
0!
1"
0=
1<
00
1/
#3900000
1!
1=
10
#3920000
0#
0!
0;
0=
0<
1'
13
00
0/
1.
#3940000
1!
1=
10
#3960000
0"
1!
1&
18
0=
1<
00
1/
#3980000
0!
1%
19
1=
10
#4000000
1"
0$
0%
17
0&
0#
09
1;
08
0:
0=
0<
1'
1(
03
12
00
0/
0.
1-
#4020000
1!
1=
10
#4040000
0"
1!
1&
18
0=
1<
00
1/
#4060000
0!
1%
19
1=
10
#4080000
1#
1"
0%
0&
07
09
08
0;
0=
0<
13
00
0/
1.
#4100000
1!
1=
10
#4120000
0"
1!
1&
18
0=
1<
00
1/
#4140000
0!
1%
19
1=
10
#4160000
1!
0%
09
1$
0&
1#
1;
08
1:
0<
0'
0(
03
02
00
0/
0.
0-
1,
#4180000
0!
0=
1%
15
10
#4200000
1!
1"
1=
0%
1<
05
00
1/
#4220000
0!
0=
1%
15
10
#4240000
1!
0#
1=
0;
0%
0<
1'
05
13
00
0/
1.
#4260000
0!
0=
1%
15
10
#4280000
0"
19
1&
1=
18
1%
1<
05
00
1/
#4300000
1!
09
0=
15
10
#4320000
1"
0$
17
0&
0#
1=
1;
08
0:
0%
0<
1'
1(
05
03
12
00
0/
0.
1-
#4340000
0!
0=
1%
15
10
#4360000
0"
19
1&
1=
18
1%
1<
05
00
1/
#4380000
1!
09
0=
15
10
#4400000
1#
1"
0&
07
1=
08
0;
0%
0<
05
13
00
0/
1.
#4420000
0!
0=
1%
15
10
#4440000
0"
19
1&
1=
18
1%
1<
05
00
1/
#4460000
1!
09
0=
15
10
#4480000
0!
1"
1$
0&
1#
1;
08
1:
0'
0(
0%
03
02
05
00
0/
0.
0-
0,
1+
#4500000
1!
1=
10
#4520000
0"
0<
0=
1&
14
00
1/
#4540000
0!
1%
19
1=
10
#4560000
1!
0#
18
0%
0"
1<
09
0;
0=
1&
1'
04
13
00
0/
1.
#4580000
0!
1%
19
1=
10
#4600000
1"
1!
0%
08
09
0<
0=
14
00
1/
#4620000
0!
1%
19
1=
10
#4640000
1!
18
0$
0%
17
0"
0#
1<
09
1;
0:
0=
1&
1'
1(
04
03
12
00
0/
0.
1-
#4660000
0!
1%
19
1=
10
#4680000
1"
1!
0%
08
09
0<
0=
14
00
1/
#4700000
0!
1%
19
1=
10
#4720000
1!
0"
1#
18
0%
07
1<
09
0;
0=
1&
04
13
00
0/
1.
#4740000
0!
1%
19
1=
10
#4760000
1"
1!
0%
08
09
0<
0=
14
00
1/
#4780000
0!
1%
19
1=
10
#4800000
1!
1$
0%
1"
1#
1<
09
1;
1:
0&
0'
0(
04
03
02
00
0/
0.
0-
1,
#4820000
0!
0=
1%
15
10
#4840000
0"
19
0!
1=
0<
1%
1&
05
14
00
1/
#4860000
1!
09
0=
15
10
#4880000
19
0#
18
0!
0"
1=
1<
0;
1%
1&
1'
05
04
13
00
0/
1.
#4900000
1!
09
0=
15
10
#4920000
0!
1"
19
08
1=
0<
1%
05
14
00
1/
#4940000
1!
09
0=
15
10
#4960000
19
18
0$
0!
17
0"
0#
1=
1<
1;
0:
1%
1&
1'
1(
05
04
03
12
00
0/
0.
1-
#4980000
1!
09
0=
15
10
#5000000
0!
1"
19
08
1=
0<
1%
05
14
00
1/
#5020000
1!
09
0=
15
10
#5040000
19
0"
1#
18
0!
07
1=
1<
0;
1%
1&
05
04
13
00
0/
1.
#5060000
1!
09
0=
15
10
#5080000
0!
1"
19
08
1=
0<
1%
05
14
00
1/
#5100000
1!
09
0=
15
10
